<?xml version="1.0" encoding="utf-8"?>
<!-- Generator: Adobe Illustrator 16.0.0, SVG Export Plug-In . SVG Version: 6.00 Build 0)  -->
<!DOCTYPE svg PUBLIC "-//W3C//DTD SVG 1.1//EN" "http://www.w3.org/Graphics/SVG/1.1/DTD/svg11.dtd">
<svg version="1.1" id="Layer_1" xmlns="http://www.w3.org/2000/svg" xmlns:xlink="http://www.w3.org/1999/xlink" x="0px" y="0px"
	 width="26.833px" height="85.667px" viewBox="0 0 26.833 85.667" enable-background="new 0 0 26.833 85.667" xml:space="preserve">
<rect x="1" y="1" fill="#FFFFFF" stroke="#CDCCCC" stroke-width="0.8576" stroke-miterlimit="10" width="25" height="25"/>
<rect x="1" y="59.709" fill="#FFFFFF" stroke="#CDCCCC" stroke-width="0.8576" stroke-miterlimit="10" width="25" height="25"/>
<polyline fill="none" stroke="#F15C25" stroke-width="2" stroke-linecap="round" stroke-linejoin="round" stroke-miterlimit="10" points="
	6.27,72.55 11.27,77.55 21.27,67.55 "/>
</svg>
