<?xml version="1.0" encoding="utf-8"?>
<!-- Generator: Adobe Illustrator 16.0.0, SVG Export Plug-In . SVG Version: 6.00 Build 0)  -->
<!DOCTYPE svg PUBLIC "-//W3C//DTD SVG 1.1//EN" "http://www.w3.org/Graphics/SVG/1.1/DTD/svg11.dtd">
<svg version="1.1" id="Layer_1" xmlns="http://www.w3.org/2000/svg" xmlns:xlink="http://www.w3.org/1999/xlink" x="0px" y="0px"
	 width="11.417px" height="70.167px" viewBox="0 0 11.417 70.167" enable-background="new 0 0 11.417 70.167" xml:space="preserve">
<rect x="0.75" y="0.751" fill="#FFFFFF" stroke="#CDCCCC" stroke-width="0.8576" stroke-miterlimit="10" width="10" height="10"/>
<rect x="0.75" y="59.46" fill="#FFFFFF" stroke="#CDCCCC" stroke-width="0.8576" stroke-miterlimit="10" width="10" height="10"/>
<polyline fill="none" stroke="#F15C25" stroke-width="2" stroke-linecap="round" stroke-linejoin="round" stroke-miterlimit="10" points="
	2.858,64.596 4.858,66.596 8.858,62.596 "/>
</svg>
