<?xml version="1.0" encoding="utf-8"?>
<!-- Generator: Adobe Illustrator 16.0.0, SVG Export Plug-In . SVG Version: 6.00 Build 0)  -->
<!DOCTYPE svg PUBLIC "-//W3C//DTD SVG 1.1//EN" "http://www.w3.org/Graphics/SVG/1.1/DTD/svg11.dtd">
<svg version="1.1" id="Layer_1" xmlns="http://www.w3.org/2000/svg" xmlns:xlink="http://www.w3.org/1999/xlink" x="0px" y="0px"
	 width="46.986px" height="50px" viewBox="0 0 46.986 50" enable-background="new 0 0 46.986 50" xml:space="preserve">
<g display="none">
	<g display="inline">
		<g>
			<g>
				<rect x="0.709" y="24.23" fill="#F15E27" width="19.771" height="1.54"/>
			</g>
		</g>
		<g>
			<path fill="#F15E27" d="M44.775,37.371c-4.129,6.578-11.445,10.963-19.771,10.963C12.138,48.334,1.671,37.865,1.671,25
				c0-12.867,10.467-23.333,23.334-23.333c8.324,0,15.644,4.383,19.771,10.961h1.941C42.406,5.09,34.289,0,25,0
				C11.215,0,0,11.215,0,25c0,13.785,11.215,25,25,25c9.287,0,17.404-5.092,21.717-12.629H44.775L44.775,37.371z"/>
		</g>
		<g>
			<path fill="#F15E27" d="M24.535,28.576c2.992,0,5.432-2.966,5.432-6.609c0-3.646-2.438-6.606-5.432-6.606
				c-1.482,0-2.867,0.709-3.896,1.994c-0.992,1.237-1.538,2.879-1.537,4.612C19.102,25.61,21.539,28.576,24.535,28.576z
				 M24.535,16.803c2.191,0,3.98,2.314,3.98,5.162c0,2.847-1.789,5.16-3.98,5.16c-2.197,0-3.984-2.313-3.986-5.16
				C20.548,19.122,22.335,16.803,24.535,16.803z M29.098,27.854c-0.402,0-0.726,0.32-0.726,0.729c0,0.396,0.321,0.729,0.726,0.729
				c2.475,0,4.491,2.02,4.491,4.488c0,0.312-0.262,0.578-0.582,0.578H16.059c-0.32,0-0.579-0.268-0.579-0.578
				c0-2.479,2.018-4.488,4.49-4.488c0.4,0,0.725-0.32,0.725-0.729s-0.322-0.729-0.725-0.729c-3.275,0-5.939,2.664-5.939,5.938
				c0,1.117,0.91,2.025,2.027,2.025h16.949c1.117,0,2.029-0.908,2.029-2.025C35.037,30.518,32.373,27.854,29.098,27.854z
				 M25.064,14.552c0.521-0.308,1.071-0.464,1.646-0.464c2.192,0,3.979,2.315,3.979,5.161c0,0.51-0.057,1.012-0.168,1.488
				c-0.092,0.391,0.15,0.779,0.539,0.869c0.06,0.018,0.109,0.021,0.166,0.021c0.33,0,0.627-0.229,0.705-0.562
				c0.137-0.586,0.209-1.195,0.209-1.816c0-3.646-2.438-6.606-5.434-6.606c-0.824,0-1.646,0.229-2.381,0.66
				c-0.347,0.204-0.459,0.647-0.258,0.993C24.273,14.642,24.721,14.754,25.064,14.552z M31.416,24.956
				c-0.398,0-0.727,0.32-0.727,0.726c0,0.396,0.324,0.729,0.727,0.729c2.477,0,4.346,2.062,4.346,4.533
				c0,0.082-0.018,0.162-0.049,0.236c-0.164,0.361,0,0.793,0.367,0.955c0.096,0.041,0.193,0.062,0.293,0.062
				c0.277,0,0.543-0.16,0.664-0.434c0.113-0.266,0.174-0.537,0.174-0.824C37.21,27.666,34.689,24.956,31.416,24.956z"/>
		</g>
	</g>
</g>
<g display="none">
	<g display="inline">
		<g>
			<g>
				<g>
					<g>
						<rect x="0.707" y="24.23" fill="#F15E27" width="19.773" height="1.54"/>
					</g>
				</g>
			</g>
			<g>
				<g>
					<path fill="#F15E27" d="M44.775,37.371c-4.131,6.578-11.449,10.961-19.773,10.961C12.138,48.332,1.669,37.865,1.669,25
						c0-12.866,10.469-23.333,23.333-23.333c8.324,0,15.646,4.383,19.773,10.961h1.943C42.406,5.091,34.287,0,25,0
						C11.217,0,0,11.215,0,25s11.217,25,25,25c9.287,0,17.406-5.092,21.719-12.629H44.775L44.775,37.371z"/>
				</g>
			</g>
			<g>
				<g>
					<path fill="#F15E27" d="M24.533,28.574c2.996,0,5.436-2.965,5.436-6.609c0-3.644-2.438-6.608-5.436-6.608
						c-1.479,0-2.865,0.709-3.895,1.996c-0.992,1.239-1.538,2.879-1.536,4.612C19.101,25.609,21.538,28.574,24.533,28.574z
						 M24.533,16.806c2.195,0,3.984,2.313,3.984,5.159c0,2.847-1.789,5.162-3.984,5.162c-2.194,0-3.98-2.314-3.982-5.162
						C20.549,19.12,22.334,16.806,24.533,16.806z M29.098,27.854c-0.402,0-0.729,0.322-0.729,0.729c0,0.402,0.324,0.727,0.729,0.727
						c2.475,0,4.492,2.02,4.492,4.49c0,0.312-0.264,0.578-0.58,0.578H16.059c-0.32,0-0.579-0.266-0.579-0.578
						c0-2.479,2.015-4.49,4.49-4.49c0.399,0,0.726-0.32,0.726-0.727s-0.325-0.729-0.726-0.729c-3.275,0-5.939,2.664-5.939,5.938
						c0,1.119,0.91,2.027,2.027,2.027h16.95c1.115,0,2.025-0.908,2.025-2.027C35.035,30.518,32.371,27.854,29.098,27.854z"/>
				</g>
			</g>
		</g>
		<g>
			<g>
				<path fill="#F15E27" d="M34.477,20.19c-0.367,0-0.664-0.297-0.664-0.664v-8.344c0-0.367,0.297-0.664,0.664-0.664
					s0.664,0.297,0.664,0.664v8.344C35.141,19.896,34.844,20.19,34.477,20.19z"/>
			</g>
			<g>
				<path fill="#F15E27" d="M38.648,16.022h-8.344c-0.367,0-0.664-0.297-0.664-0.664c0-0.361,0.297-0.664,0.664-0.664h8.344
					c0.367,0,0.664,0.301,0.664,0.664C39.312,15.724,39.016,16.022,38.648,16.022z"/>
			</g>
		</g>
	</g>
</g>
<g display="none">
	<g display="inline">
		<g>
			<g>
				<rect x="0.975" y="24.229" fill="#F15E27" width="14.939" height="1.539"/>
			</g>
		</g>
		<g>
			<path fill="#F15E27" d="M45.043,37.371c-4.133,6.58-11.449,10.963-19.773,10.963C12.404,48.334,1.937,37.867,1.937,25
				c0-12.865,10.467-23.332,23.333-23.332c8.324,0,15.645,4.383,19.773,10.961h1.941C42.676,5.091,34.557,0,25.27,0
				c-13.785,0-25,11.215-25,25s11.215,25,25,25c9.287,0,17.406-5.092,21.717-12.629H45.043z"/>
		</g>
		<path fill="#F15E27" d="M33.965,37.857c-0.115,0-0.23-0.027-0.333-0.082l-7.562-3.979l-7.56,3.979
			c-0.103,0.055-0.217,0.082-0.332,0.082c-0.151,0-0.297-0.047-0.42-0.137c-0.222-0.162-0.331-0.438-0.284-0.699l1.443-8.418
			l-6.116-5.961c-0.196-0.189-0.266-0.479-0.181-0.732c0.084-0.262,0.306-0.445,0.574-0.486l8.452-1.227l3.78-7.658
			c0.121-0.246,0.366-0.397,0.642-0.397c0.271,0,0.521,0.155,0.643,0.396l3.78,7.659l8.448,1.227
			c0.271,0.039,0.494,0.23,0.578,0.486c0.082,0.258,0.012,0.545-0.182,0.732l-6.116,5.961l1.441,8.418
			c0.049,0.271-0.062,0.537-0.281,0.699C34.264,37.812,34.115,37.857,33.965,37.857z M26.073,32.281
			c0.116,0,0.229,0.025,0.337,0.082l6.605,3.475l-1.263-7.357c-0.04-0.23,0.035-0.469,0.203-0.633l5.351-5.215l-7.391-1.072
			c-0.232-0.033-0.436-0.182-0.538-0.393l-3.308-6.695l-3.305,6.695c-0.104,0.209-0.306,0.355-0.539,0.393l-7.39,1.072l5.348,5.215
			c0.168,0.166,0.245,0.398,0.205,0.633l-1.262,7.357l6.607-3.477C25.843,32.311,25.957,32.281,26.073,32.281z"/>
	</g>
</g>
<g>
	<g>
		<g>
			<g>
				<rect x="0.976" y="24.23" fill="#F15E27" width="11.361" height="1.54"/>
			</g>
		</g>
		<g>
			<path fill="#F15E27" d="M45.045,37.371c-4.132,6.578-11.448,10.961-19.772,10.961C12.406,48.332,1.939,37.865,1.939,25
				c0-12.866,10.467-23.333,23.333-23.333c8.324,0,15.646,4.383,19.772,10.961h1.941C42.675,5.091,34.556,0,25.269,0
				c-13.785,0-25,11.215-25,25s11.214,25,25,25c9.287,0,17.405-5.092,21.717-12.629H45.045L45.045,37.371z"/>
		</g>
		<g>
			<path fill="#F15E27" d="M30.372,27.896c-2.714,2.711-7.122,2.711-9.834,0c-0.359-0.357-0.943-0.357-1.307,0
				c-0.358,0.354-0.358,0.938,0,1.307c1.717,1.717,3.969,2.572,6.223,2.572s4.508-0.855,6.223-2.572
				c0.358-0.359,0.358-0.943,0-1.307C31.315,27.539,30.731,27.539,30.372,27.896z"/>
			<path fill="#F15E27" d="M25.483,10.772c-8.107,0-14.704,6.602-14.704,14.705c0,7.5,5.646,13.688,12.907,14.582
				c0.309,0.688,0.994,1.168,1.797,1.168c1.086,0,1.968-0.885,1.968-1.973s-0.882-1.969-1.968-1.969
				c-0.705,0-1.314,0.373-1.666,0.926c-6.305-0.816-11.191-6.213-11.191-12.734c0-7.093,5.77-12.854,12.857-12.854
				c6.779,0,12.354,5.271,12.826,11.938h-1.014c-0.076,0-0.146,0.022-0.219,0.043c-0.212-0.422-0.561-0.759-0.994-0.938
				c-0.868-5.072-5.285-8.949-10.604-8.949c-5.317,0-9.733,3.875-10.603,8.949c-0.711,0.297-1.211,0.998-1.211,1.814
				c0,0.812,0.5,1.521,1.211,1.812c0.866,5.07,5.284,8.949,10.603,8.949c5.315,0,9.733-3.879,10.604-8.949
				c0.436-0.188,0.782-0.521,0.994-0.938c0.07,0.02,0.141,0.045,0.219,0.045h1.969c0.51,0,0.924-0.414,0.924-0.924
				C40.187,17.368,33.593,10.772,25.483,10.772z M25.483,34.396c-4.92,0-8.922-4.002-8.922-8.92c0-4.917,4.002-8.919,8.922-8.919
				c4.918,0,8.92,4.002,8.92,8.919C34.403,30.396,30.401,34.396,25.483,34.396z"/>
		</g>
	</g>
</g>
</svg>
