<?xml version="1.0" encoding="utf-8"?>
<!-- Generator: Adobe Illustrator 16.0.0, SVG Export Plug-In . SVG Version: 6.00 Build 0)  -->
<!DOCTYPE svg PUBLIC "-//W3C//DTD SVG 1.1//EN" "http://www.w3.org/Graphics/SVG/1.1/DTD/svg11.dtd">
<svg version="1.1" id="Layer_1" xmlns="http://www.w3.org/2000/svg" xmlns:xlink="http://www.w3.org/1999/xlink" x="0px" y="0px"
	 width="46.717px" height="50px" viewBox="0 0 46.717 50" enable-background="new 0 0 46.717 50" xml:space="preserve">
<g>
	<g>
		<g>
			<g>
				<rect x="0.709" y="24.23" fill="#F15E27" width="19.771" height="1.54"/>
			</g>
		</g>
		<g>
			<path fill="#F15E27" d="M44.775,37.371c-4.129,6.578-11.445,10.963-19.771,10.963C12.138,48.334,1.671,37.865,1.671,25
				c0-12.867,10.467-23.333,23.334-23.333c8.324,0,15.644,4.383,19.771,10.961h1.941C42.406,5.09,34.289,0,25,0
				C11.215,0,0,11.215,0,25c0,13.785,11.215,25,25,25c9.287,0,17.404-5.092,21.717-12.629H44.775L44.775,37.371z"/>
		</g>
		<g>
			<path fill="#F15E27" d="M24.535,28.576c2.992,0,5.432-2.966,5.432-6.609c0-3.646-2.438-6.606-5.432-6.606
				c-1.482,0-2.867,0.709-3.896,1.994c-0.992,1.237-1.538,2.879-1.537,4.612C19.102,25.61,21.539,28.576,24.535,28.576z
				 M24.535,16.803c2.191,0,3.98,2.314,3.98,5.162c0,2.847-1.789,5.16-3.98,5.16c-2.197,0-3.984-2.313-3.986-5.16
				C20.548,19.122,22.335,16.803,24.535,16.803z M29.098,27.854c-0.402,0-0.726,0.32-0.726,0.729c0,0.396,0.321,0.729,0.726,0.729
				c2.475,0,4.491,2.02,4.491,4.488c0,0.312-0.262,0.578-0.582,0.578H16.059c-0.32,0-0.579-0.268-0.579-0.578
				c0-2.479,2.018-4.488,4.49-4.488c0.4,0,0.725-0.32,0.725-0.729s-0.322-0.729-0.725-0.729c-3.275,0-5.939,2.664-5.939,5.938
				c0,1.117,0.91,2.025,2.027,2.025h16.949c1.117,0,2.029-0.908,2.029-2.025C35.037,30.518,32.373,27.854,29.098,27.854z
				 M25.064,14.552c0.521-0.308,1.071-0.464,1.646-0.464c2.192,0,3.979,2.315,3.979,5.161c0,0.51-0.057,1.012-0.168,1.488
				c-0.092,0.391,0.15,0.779,0.539,0.869c0.06,0.018,0.109,0.021,0.166,0.021c0.33,0,0.627-0.229,0.705-0.562
				c0.137-0.586,0.209-1.195,0.209-1.816c0-3.646-2.438-6.606-5.434-6.606c-0.824,0-1.646,0.229-2.381,0.66
				c-0.347,0.204-0.459,0.647-0.258,0.993C24.273,14.642,24.721,14.754,25.064,14.552z M31.416,24.956
				c-0.398,0-0.727,0.32-0.727,0.726c0,0.396,0.324,0.729,0.727,0.729c2.477,0,4.346,2.062,4.346,4.533
				c0,0.082-0.018,0.162-0.049,0.236c-0.164,0.361,0,0.793,0.367,0.955c0.096,0.041,0.193,0.062,0.293,0.062
				c0.277,0,0.543-0.16,0.664-0.434c0.113-0.266,0.174-0.537,0.174-0.824C37.21,27.666,34.689,24.956,31.416,24.956z"/>
		</g>
	</g>
</g>
</svg>
