<?xml version="1.0" encoding="utf-8"?>
<!-- Generator: Adobe Illustrator 16.0.0, SVG Export Plug-In . SVG Version: 6.00 Build 0)  -->
<!DOCTYPE svg PUBLIC "-//W3C//DTD SVG 1.1//EN" "http://www.w3.org/Graphics/SVG/1.1/DTD/svg11.dtd">
<svg version="1.1" id="Layer_1" xmlns="http://www.w3.org/2000/svg" xmlns:xlink="http://www.w3.org/1999/xlink" x="0px" y="0px"
	 width="409px" height="179.666px" viewBox="0 0 409 179.666" enable-background="new 0 0 409 179.666" xml:space="preserve">
<rect x="-9.507" y="-11.301" display="none" fill="#732829" stroke="#000000" stroke-miterlimit="10" width="1005.479" height="823.288"/>
<g>
	<path fill="#CECECE" d="M22.529,25.833c0-0.031-0.004-0.061-0.009-0.09c0.018-0.104,0.003-0.215-0.054-0.312
		c-0.128-0.225-0.415-0.301-0.639-0.173l-4.467,2.566c-0.194-0.354-0.571-0.597-1.003-0.597h-2.863
		c-0.432,0-0.809,0.242-1.002,0.597l-4.468-2.566c-0.224-0.129-0.51-0.052-0.639,0.173c-0.041,0.071-0.06,0.149-0.061,0.227
		c-0.019,0.053-0.03,0.108-0.03,0.167v7.944c0,0.059,0.012,0.113,0.03,0.166c-0.001,0.08,0.018,0.162,0.061,0.236
		c0.086,0.15,0.244,0.235,0.406,0.235c0.079,0,0.159-0.021,0.232-0.062l4.468-2.567c0.193,0.354,0.57,0.597,1.002,0.597h2.863
		c0.432,0,0.809-0.241,1.002-0.596l4.468,2.566c0.073,0.041,0.153,0.062,0.233,0.062c0.161,0,0.318-0.085,0.405-0.235
		c0.057-0.098,0.071-0.206,0.054-0.309c0.005-0.028,0.009-0.057,0.009-0.086v-7.943H22.529z M12.354,30.778L8.29,33.114v-6.627
		l4.064,2.336V30.778z M16.564,29.36v0.881v0.991c0,0.028-0.006,0.054-0.016,0.078c-0.031,0.075-0.104,0.128-0.19,0.128h-2.863
		c-0.086,0-0.159-0.053-0.189-0.128c-0.011-0.024-0.017-0.05-0.017-0.078v-0.991V29.36v-0.991c0-0.028,0.006-0.054,0.017-0.078
		c0.03-0.075,0.104-0.128,0.189-0.128h2.863c0.086,0,0.159,0.053,0.189,0.128c0.011,0.024,0.017,0.05,0.017,0.078V29.36
		L16.564,29.36z M21.594,33.129L17.5,30.778v-1.955l4.094-2.352V33.129L21.594,33.129z"/>
	<circle fill="none" stroke="#CECECE" stroke-miterlimit="10" cx="15.07" cy="13.893" r="10.5"/>
</g>
<g>
	<path fill="#F05B25" d="M22.939,169.763c0-0.031-0.004-0.061-0.009-0.09c0.018-0.104,0.003-0.215-0.054-0.312
		c-0.128-0.225-0.415-0.301-0.639-0.172l-4.467,2.565c-0.194-0.354-0.571-0.597-1.003-0.597h-2.863
		c-0.432,0-0.809,0.242-1.002,0.597l-4.468-2.565c-0.224-0.129-0.51-0.053-0.639,0.172c-0.041,0.072-0.06,0.149-0.061,0.228
		c-0.019,0.054-0.03,0.108-0.03,0.167v7.944c0,0.059,0.012,0.112,0.03,0.166c-0.001,0.079,0.018,0.161,0.061,0.235
		c0.086,0.15,0.244,0.235,0.406,0.235c0.079,0,0.159-0.021,0.232-0.062l4.468-2.567c0.193,0.354,0.57,0.597,1.002,0.597h2.863
		c0.432,0,0.809-0.24,1.002-0.596l4.468,2.566c0.073,0.041,0.153,0.062,0.233,0.062c0.161,0,0.318-0.085,0.405-0.235
		c0.057-0.098,0.071-0.205,0.054-0.309c0.005-0.027,0.009-0.057,0.009-0.086v-7.943H22.939z M12.763,174.708l-4.064,2.336v-6.627
		l4.064,2.336V174.708z M16.974,173.29v0.881v0.991c0,0.028-0.006,0.054-0.016,0.078c-0.031,0.075-0.104,0.128-0.19,0.128h-2.863
		c-0.086,0-0.159-0.053-0.189-0.128c-0.011-0.024-0.017-0.05-0.017-0.078v-0.991v-0.881v-0.991c0-0.028,0.006-0.054,0.017-0.077
		c0.03-0.076,0.104-0.129,0.189-0.129h2.863c0.086,0,0.159,0.053,0.189,0.129c0.011,0.023,0.017,0.049,0.017,0.077V173.29
		L16.974,173.29z M22.003,177.06l-4.094-2.352v-1.955l4.094-2.352V177.06L22.003,177.06z"/>
	<circle fill="none" stroke="#F05B25" stroke-miterlimit="10" cx="15.48" cy="157.823" r="10.5"/>
</g>
<g>
	<path fill="#F05B25" d="M129.775,155.896c0,0.03,0.004,0.062,0.009,0.092c-0.018,0.104-0.003,0.213,0.054,0.312
		c0.128,0.226,0.415,0.302,0.639,0.173l4.467-2.566c0.194,0.354,0.571,0.597,1.003,0.597h2.863c0.432,0,0.809-0.241,1.002-0.597
		l4.468,2.566c0.224,0.129,0.51,0.051,0.639-0.173c0.041-0.071,0.06-0.149,0.061-0.229c0.019-0.051,0.03-0.106,0.03-0.166v-7.942
		c0-0.06-0.012-0.114-0.03-0.166c0.001-0.081-0.018-0.162-0.061-0.237c-0.086-0.15-0.244-0.234-0.406-0.234
		c-0.079,0-0.159,0.02-0.232,0.062l-4.468,2.566c-0.193-0.354-0.57-0.597-1.002-0.597h-2.863c-0.432,0-0.809,0.24-1.002,0.597
		l-4.468-2.566c-0.073-0.043-0.153-0.062-0.233-0.062c-0.161,0-0.318,0.084-0.405,0.234c-0.057,0.098-0.071,0.207-0.054,0.311
		c-0.005,0.027-0.009,0.055-0.009,0.084v7.943H129.775z M139.951,150.951l4.064-2.335v6.625l-4.064-2.335V150.951z M135.74,152.368
		v-0.879v-0.992c0-0.027,0.006-0.055,0.016-0.078c0.031-0.074,0.104-0.128,0.19-0.128h2.863c0.086,0,0.159,0.054,0.189,0.128
		c0.011,0.023,0.017,0.051,0.017,0.078v0.992v0.879v0.992c0,0.026-0.006,0.055-0.017,0.078c-0.03,0.074-0.104,0.127-0.189,0.127
		h-2.863c-0.086,0-0.159-0.053-0.189-0.127c-0.011-0.023-0.017-0.051-0.017-0.078V152.368L135.74,152.368z M130.71,148.601
		l4.094,2.352v1.955l-4.094,2.353V148.601L130.71,148.601z"/>
	<circle fill="none" stroke="#F05B25" stroke-miterlimit="10" cx="137.234" cy="167.836" r="10.5"/>
</g>
<g>
	<path fill="#CECECE" d="M129.618,11.573c0,0.03,0.004,0.061,0.009,0.091c-0.018,0.104-0.003,0.213,0.054,0.312
		c0.128,0.225,0.415,0.301,0.639,0.172l4.467-2.566c0.194,0.355,0.571,0.597,1.003,0.597h2.863c0.432,0,0.809-0.241,1.002-0.597
		l4.468,2.566c0.224,0.129,0.51,0.052,0.639-0.172c0.041-0.072,0.06-0.15,0.061-0.229c0.019-0.052,0.03-0.107,0.03-0.166V3.639
		c0-0.059-0.012-0.114-0.03-0.166c0.001-0.081-0.018-0.162-0.061-0.238C144.674,3.084,144.516,3,144.354,3
		c-0.079,0-0.159,0.02-0.232,0.062l-4.468,2.566c-0.193-0.355-0.57-0.597-1.002-0.597h-2.863c-0.432,0-0.809,0.241-1.002,0.597
		l-4.468-2.566C130.246,3.02,130.166,3,130.085,3c-0.161,0-0.318,0.084-0.405,0.234c-0.057,0.098-0.071,0.207-0.054,0.311
		c-0.005,0.027-0.009,0.055-0.009,0.084L129.618,11.573L129.618,11.573z M139.793,6.628l4.064-2.335v6.625l-4.064-2.335V6.628z
		 M135.583,8.045V7.166V6.174c0-0.027,0.006-0.055,0.016-0.078c0.031-0.074,0.104-0.128,0.19-0.128h2.863
		c0.086,0,0.159,0.054,0.189,0.128c0.011,0.023,0.017,0.051,0.017,0.078v0.992v0.879v0.992c0,0.027-0.006,0.055-0.017,0.078
		c-0.03,0.074-0.104,0.127-0.189,0.127h-2.863c-0.086,0-0.159-0.053-0.189-0.127c-0.011-0.023-0.017-0.051-0.017-0.078V8.045
		L135.583,8.045z M130.553,4.276l4.094,2.352v1.955l-4.094,2.353V4.276L130.553,4.276z"/>
	<circle fill="none" stroke="#CECECE" stroke-miterlimit="10" cx="137.077" cy="23.513" r="10.5"/>
</g>
<g>
	<path fill="#CECECE" d="M276.452,29.229h-19.312h-1.013h-6.642c-0.279,0-0.506,0.228-0.506,0.507v3.058
		c0,0.279,0.227,0.506,0.506,0.506h26.966c0.28,0,0.507-0.227,0.507-0.506v-3.058C276.958,29.457,276.732,29.229,276.452,29.229
		 M249.992,30.243h6.136v2.045h-6.136V30.243z M275.945,32.288h-18.807v-2.045h18.807V32.288z"/>
	<path fill="#CECECE" d="M269.691,26.213c0,0.279,0.227,0.506,0.506,0.506s0.506-0.227,0.506-0.506c0-0.321,0.092-0.454,0.245-0.672
		c0.18-0.259,0.426-0.611,0.426-1.251c0-0.641-0.246-0.993-0.426-1.251c-0.152-0.219-0.245-0.351-0.245-0.672
		c0-0.321,0.092-0.453,0.245-0.672c0.18-0.258,0.426-0.61,0.426-1.251c0-0.279-0.228-0.506-0.506-0.506
		c-0.279,0-0.507,0.227-0.507,0.506c0,0.322-0.092,0.453-0.244,0.672c-0.18,0.258-0.426,0.611-0.426,1.251
		c0,0.64,0.246,0.993,0.426,1.251c0.152,0.219,0.244,0.35,0.244,0.672c0,0.322-0.092,0.453-0.244,0.672
		C269.938,25.22,269.691,25.573,269.691,26.213"/>
	<path fill="#CECECE" d="M272.494,26.213c0,0.279,0.227,0.506,0.506,0.506s0.506-0.227,0.506-0.506c0-0.321,0.092-0.454,0.245-0.672
		c0.181-0.259,0.426-0.611,0.426-1.251c0-0.641-0.245-0.993-0.426-1.251c-0.151-0.219-0.245-0.351-0.245-0.672
		c0-0.321,0.092-0.453,0.245-0.672c0.181-0.258,0.426-0.61,0.426-1.251c0-0.279-0.227-0.506-0.506-0.506
		c-0.278,0-0.506,0.227-0.506,0.506c0,0.322-0.093,0.453-0.244,0.672c-0.181,0.258-0.427,0.611-0.427,1.251
		c0,0.64,0.246,0.993,0.427,1.251c0.151,0.219,0.244,0.35,0.244,0.672c0,0.322-0.093,0.453-0.244,0.672
		C272.74,25.22,272.494,25.573,272.494,26.213"/>
	<path fill="#CECECE" d="M276.309,22.367c0-0.321,0.092-0.454,0.244-0.672c0.18-0.258,0.428-0.611,0.428-1.251
		c0-0.279-0.229-0.506-0.508-0.506s-0.506,0.227-0.506,0.506c0,0.322-0.092,0.453-0.244,0.672c-0.18,0.258-0.427,0.611-0.427,1.251
		c0,0.64,0.246,0.993,0.427,1.251c0.152,0.219,0.244,0.35,0.244,0.672c0,0.322-0.092,0.453-0.244,0.672
		c-0.18,0.258-0.427,0.611-0.427,1.25c0,0.281,0.228,0.507,0.507,0.507c0.278,0,0.506-0.226,0.506-0.507
		c0-0.32,0.092-0.453,0.244-0.671c0.18-0.258,0.428-0.611,0.428-1.251s-0.248-0.992-0.428-1.252
		C276.4,22.82,276.309,22.688,276.309,22.367"/>
</g>
<g>
	<path fill="#F05B25" d="M276.452,174.539h-19.312h-1.013h-6.642c-0.279,0-0.506,0.228-0.506,0.507v3.059
		c0,0.278,0.227,0.506,0.506,0.506h26.966c0.28,0,0.507-0.228,0.507-0.506v-3.059C276.958,174.767,276.732,174.539,276.452,174.539
		 M249.992,175.552h6.136v2.047h-6.136V175.552z M275.945,177.599h-18.807v-2.047h18.807V177.599z"/>
	<path fill="#F05B25" d="M269.691,171.522c0,0.278,0.227,0.506,0.506,0.506s0.506-0.228,0.506-0.506
		c0-0.322,0.092-0.455,0.245-0.672c0.18-0.26,0.426-0.611,0.426-1.252s-0.246-0.992-0.426-1.25c-0.152-0.22-0.245-0.352-0.245-0.673
		s0.092-0.452,0.245-0.672c0.18-0.258,0.426-0.61,0.426-1.251c0-0.279-0.228-0.507-0.506-0.507c-0.279,0-0.507,0.228-0.507,0.507
		c0,0.321-0.092,0.453-0.244,0.672c-0.18,0.258-0.426,0.61-0.426,1.251c0,0.64,0.246,0.992,0.426,1.25
		c0.152,0.22,0.244,0.351,0.244,0.673c0,0.321-0.092,0.453-0.244,0.672C269.938,170.528,269.691,170.882,269.691,171.522"/>
	<path fill="#F05B25" d="M272.494,171.522c0,0.278,0.227,0.506,0.506,0.506s0.506-0.228,0.506-0.506
		c0-0.322,0.092-0.455,0.245-0.672c0.181-0.26,0.426-0.611,0.426-1.252s-0.245-0.992-0.426-1.25
		c-0.151-0.22-0.245-0.352-0.245-0.673s0.092-0.452,0.245-0.672c0.181-0.258,0.426-0.61,0.426-1.251
		c0-0.279-0.227-0.507-0.506-0.507c-0.278,0-0.506,0.228-0.506,0.507c0,0.321-0.093,0.453-0.244,0.672
		c-0.181,0.258-0.427,0.61-0.427,1.251c0,0.64,0.246,0.992,0.427,1.25c0.151,0.22,0.244,0.351,0.244,0.673
		c0,0.321-0.093,0.453-0.244,0.672C272.74,170.528,272.494,170.882,272.494,171.522"/>
	<path fill="#F05B25" d="M276.309,167.677c0-0.322,0.092-0.453,0.244-0.672c0.18-0.258,0.428-0.611,0.428-1.251
		c0-0.28-0.229-0.507-0.508-0.507s-0.506,0.227-0.506,0.507c0,0.321-0.092,0.453-0.244,0.671c-0.18,0.26-0.427,0.611-0.427,1.252
		c0,0.639,0.246,0.992,0.427,1.25c0.152,0.219,0.244,0.352,0.244,0.672c0,0.322-0.092,0.454-0.244,0.672
		c-0.18,0.258-0.427,0.611-0.427,1.252c0,0.279,0.228,0.506,0.507,0.506c0.278,0,0.506-0.227,0.506-0.506
		c0-0.321,0.092-0.453,0.244-0.672c0.18-0.258,0.428-0.61,0.428-1.252c0-0.639-0.248-0.992-0.428-1.25
		C276.4,168.13,276.309,167.998,276.309,167.677"/>
</g>
<g>
	<path fill="#CECECE" d="M407.002,18.979h-19.312h-1.012h-6.644c-0.278,0-0.507,0.227-0.507,0.507v3.058
		c0,0.28,0.229,0.507,0.507,0.507h26.968c0.28,0,0.507-0.227,0.507-0.507v-3.058C407.509,19.208,407.283,18.979,407.002,18.979
		 M380.542,19.993h6.136v2.045h-6.136V19.993z M406.497,22.038h-18.808v-2.045h18.808V22.038z"/>
	<path fill="#CECECE" d="M400.241,15.963c0,0.279,0.227,0.505,0.506,0.505s0.507-0.226,0.507-0.505c0-0.321,0.092-0.454,0.244-0.673
		c0.18-0.257,0.426-0.611,0.426-1.25c0-0.641-0.245-0.994-0.426-1.251c-0.152-0.219-0.244-0.351-0.244-0.673
		c0-0.32,0.092-0.453,0.244-0.671c0.18-0.259,0.426-0.61,0.426-1.251c0-0.279-0.227-0.506-0.505-0.506
		c-0.279,0-0.506,0.227-0.506,0.506c0,0.321-0.092,0.453-0.246,0.672c-0.179,0.258-0.426,0.611-0.426,1.25
		c0,0.641,0.247,0.994,0.426,1.252c0.153,0.219,0.246,0.35,0.246,0.672c0,0.321-0.092,0.453-0.246,0.672
		C400.488,14.97,400.241,15.323,400.241,15.963"/>
	<path fill="#CECECE" d="M403.043,15.963c0,0.279,0.227,0.505,0.506,0.505s0.506-0.226,0.506-0.505c0-0.321,0.094-0.454,0.245-0.673
		c0.181-0.257,0.426-0.611,0.426-1.25c0-0.641-0.244-0.994-0.426-1.251c-0.151-0.219-0.245-0.351-0.245-0.673
		c0-0.32,0.094-0.453,0.245-0.671c0.181-0.259,0.426-0.61,0.426-1.251c0-0.279-0.227-0.506-0.505-0.506s-0.506,0.227-0.506,0.506
		c0,0.321-0.092,0.453-0.245,0.672c-0.18,0.258-0.427,0.611-0.427,1.25c0,0.641,0.246,0.994,0.427,1.252
		c0.152,0.219,0.245,0.35,0.245,0.672c0,0.321-0.092,0.453-0.245,0.672C403.291,14.97,403.043,15.323,403.043,15.963"/>
	<path fill="#CECECE" d="M406.859,12.116c0-0.32,0.092-0.453,0.244-0.671c0.181-0.259,0.426-0.61,0.426-1.251
		c0-0.279-0.228-0.506-0.505-0.506c-0.279,0-0.507,0.227-0.507,0.506c0,0.321-0.092,0.453-0.244,0.672
		c-0.181,0.258-0.428,0.611-0.428,1.25c0,0.641,0.247,0.994,0.428,1.252c0.152,0.219,0.244,0.35,0.244,0.672
		c0,0.321-0.092,0.453-0.244,0.672c-0.181,0.258-0.428,0.611-0.428,1.251c0,0.279,0.228,0.505,0.506,0.505
		c0.28,0,0.508-0.226,0.508-0.505c0-0.321,0.092-0.454,0.244-0.673c0.181-0.257,0.426-0.611,0.426-1.25
		c0-0.64-0.245-0.992-0.426-1.252C406.951,12.57,406.859,12.438,406.859,12.116"/>
	
		<rect x="380.034" y="19.718" transform="matrix(-0.5698 0.8218 -0.8218 -0.5698 637.0333 -293.067)" fill="#CECECE" width="30.39" height="0.99"/>
</g>
<g>
	<path fill="#F05B25" d="M407.002,164.289h-19.312h-1.012h-6.644c-0.278,0-0.507,0.228-0.507,0.507v3.059
		c0,0.279,0.229,0.506,0.507,0.506h26.968c0.28,0,0.507-0.227,0.507-0.506v-3.059C407.509,164.517,407.283,164.289,407.002,164.289
		 M380.542,165.302h6.136v2.047h-6.136V165.302z M406.497,167.349h-18.808v-2.047h18.808V167.349z"/>
	<path fill="#F05B25" d="M400.241,161.272c0,0.278,0.227,0.504,0.506,0.504s0.507-0.226,0.507-0.504
		c0-0.322,0.092-0.455,0.244-0.674c0.18-0.257,0.426-0.61,0.426-1.25c0-0.642-0.245-0.994-0.426-1.25
		c-0.152-0.22-0.244-0.353-0.244-0.674c0-0.32,0.092-0.453,0.244-0.671c0.18-0.259,0.426-0.61,0.426-1.252
		c0-0.278-0.227-0.506-0.505-0.506c-0.279,0-0.506,0.228-0.506,0.506c0,0.322-0.092,0.454-0.246,0.672
		c-0.179,0.259-0.426,0.611-0.426,1.251c0,0.641,0.247,0.993,0.426,1.251c0.153,0.22,0.246,0.351,0.246,0.673
		c0,0.321-0.092,0.452-0.246,0.672C400.488,160.278,400.241,160.632,400.241,161.272"/>
	<path fill="#F05B25" d="M403.043,161.272c0,0.278,0.227,0.504,0.506,0.504s0.506-0.226,0.506-0.504
		c0-0.322,0.094-0.455,0.245-0.674c0.181-0.257,0.426-0.61,0.426-1.25c0-0.642-0.244-0.994-0.426-1.25
		c-0.151-0.22-0.245-0.353-0.245-0.674c0-0.32,0.094-0.453,0.245-0.671c0.181-0.259,0.426-0.61,0.426-1.252
		c0-0.278-0.227-0.506-0.505-0.506s-0.506,0.228-0.506,0.506c0,0.322-0.092,0.454-0.245,0.672c-0.18,0.259-0.427,0.611-0.427,1.251
		c0,0.641,0.246,0.993,0.427,1.251c0.152,0.22,0.245,0.351,0.245,0.673c0,0.321-0.092,0.452-0.245,0.672
		C403.291,160.278,403.043,160.632,403.043,161.272"/>
	<path fill="#F05B25" d="M406.859,157.426c0-0.321,0.092-0.452,0.244-0.671c0.181-0.259,0.426-0.611,0.426-1.252
		c0-0.279-0.228-0.506-0.505-0.506c-0.279,0-0.507,0.227-0.507,0.506c0,0.322-0.092,0.454-0.244,0.672
		c-0.181,0.26-0.428,0.611-0.428,1.251s0.247,0.993,0.428,1.251c0.152,0.219,0.244,0.352,0.244,0.672
		c0,0.322-0.092,0.453-0.244,0.672c-0.181,0.258-0.428,0.611-0.428,1.252c0,0.279,0.228,0.506,0.506,0.506
		c0.28,0,0.508-0.227,0.508-0.506c0-0.321,0.092-0.453,0.244-0.672c0.181-0.258,0.426-0.611,0.426-1.252
		c0-0.639-0.245-0.992-0.426-1.25C406.951,157.88,406.859,157.748,406.859,157.426"/>
	
		<rect x="380.035" y="165.017" transform="matrix(-0.5698 0.8218 -0.8218 -0.5698 756.4457 -64.9747)" fill="#F05B25" width="30.391" height="0.99"/>
</g>
</svg>
