<?xml version="1.0" encoding="utf-8"?>
<!-- Generator: Adobe Illustrator 16.0.0, SVG Export Plug-In . SVG Version: 6.00 Build 0)  -->
<!DOCTYPE svg PUBLIC "-//W3C//DTD SVG 1.1//EN" "http://www.w3.org/Graphics/SVG/1.1/DTD/svg11.dtd">
<svg version="1.1" id="Layer_1" xmlns="http://www.w3.org/2000/svg" xmlns:xlink="http://www.w3.org/1999/xlink" x="0px" y="0px"
	 width="52.14px" height="55px" viewBox="0 0 52.14 55" enable-background="new 0 0 52.14 55" xml:space="preserve">
<g display="none">
	<g display="inline">
		<g>
			<rect x="1.021" y="26.654" fill="#F15C25" width="17.025" height="1.693"/>
		</g>
	</g>
	<g display="inline">
		<path fill="#F15C25" d="M50.002,41.109c-4.543,7.236-12.594,12.058-21.751,12.058c-14.152,0-25.667-11.515-25.667-25.667
			S14.099,1.833,28.251,1.833c9.157,0,17.208,4.821,21.751,12.058h2.138C47.398,5.6,38.467,0,28.251,0
			c-15.164,0-27.5,12.336-27.5,27.5c0,15.164,12.336,27.5,27.5,27.5c10.216,0,19.146-5.6,23.888-13.891H50.002z"/>
	</g>
	<g display="inline">
		<g>
			<path fill="#F15C25" d="M26.445,17.73c-2.163,0-3.923-1.76-3.923-3.923c0-2.163,1.76-3.922,3.923-3.922s3.922,1.76,3.922,3.922
				C30.367,15.971,28.607,17.73,26.445,17.73z M26.445,11.345c-1.358,0-2.462,1.104-2.462,2.462c0,1.358,1.104,2.463,2.462,2.463
				s2.463-1.104,2.463-2.463C28.908,12.45,27.803,11.345,26.445,11.345z"/>
		</g>
		<g>
			<path fill="#F15C25" d="M34.936,28.21h-16.98V27.48c0-5.413,3.809-9.816,8.491-9.816c2.29,0,4.435,1.036,6.042,2.917
				c1.578,1.848,2.447,4.298,2.447,6.899V28.21z M19.442,26.75h14.007c-0.144-1.977-0.866-3.808-2.072-5.22
				c-1.324-1.551-3.076-2.405-4.931-2.405C22.776,19.125,19.754,22.483,19.442,26.75z"/>
		</g>
		<g>
			<path fill="#F15C25" d="M23.215,41.818c-2.435,0-4.607-0.561-6.457-1.667c-4.75-2.842-5.5-8.198-5.53-8.425
				c-0.08-0.6,0.083-1.197,0.458-1.682c0.394-0.509,0.971-0.832,1.625-0.91c1.302-0.16,2.5,0.736,2.673,1.994
				c0.003,0.023,0.558,3.459,3.322,5.098c1.892,1.123,4.517,1.258,7.802,0.4c0.254-0.142,0.494-0.29,0.7-0.424
				c-0.414-0.313-1.15-0.75-2.362-1.271c-1.667,0.018-3.804,0.113-5.754,0.258c-1.316,0.102-2.469-0.85-2.574-2.126
				c-0.05-0.603,0.143-1.192,0.542-1.658c0.418-0.489,1.01-0.786,1.666-0.833c2.403-0.179,4.458-0.272,6.118-0.279l0.001-0.002
				l0.416,0.001c0.069,0.001,6.912,0.026,8.398-0.001c0.01,0,0.021,0,0.033,0c1.227,0,4.433,1.106,6.918,2.039l0.473,0.178v6.949
				l-0.656,0.066c-0.203,0.021-0.388,0.021-0.564-0.001c-2.379-0.297-8.576,0.767-10.816,1.212
				C27.335,41.453,25.172,41.818,23.215,41.818z M13.611,30.576c-0.041,0-0.083,0.002-0.124,0.008
				c-0.264,0.031-0.493,0.158-0.646,0.355c-0.134,0.174-0.193,0.385-0.165,0.596c0.026,0.199,0.682,4.881,4.832,7.363
				c1.62,0.969,3.54,1.46,5.707,1.46c1.82,0,3.849-0.347,6.03-1.03l0.075-0.019c0.078-0.016,7.537-1.495,10.902-1.274v-4.514
				c-2.996-1.108-5.252-1.793-5.939-1.77c-1.305,0.021-6.488,0.007-8.014,0.002l0,0h-0.417c-1.689-0.012-3.849,0.084-6.42,0.273
				c-0.265,0.02-0.5,0.136-0.664,0.327c-0.144,0.168-0.213,0.377-0.196,0.589c0.039,0.469,0.502,0.828,1.007,0.79
				c2.044-0.151,4.288-0.249,6.006-0.263l0.151-0.002l0.14,0.059c3.15,1.334,3.557,2.212,3.69,2.5l0.248,0.537l-0.473,0.354
				c-0.03,0.023-0.749,0.56-1.608,1.032l-0.078,0.043l-0.086,0.022c-3.72,0.986-6.751,0.807-9.009-0.533
				c-3.351-1.986-3.996-5.975-4.022-6.144C14.479,30.895,14.075,30.576,13.611,30.576z"/>
		</g>
	</g>
</g>
<g display="none">
	<g display="inline">
		<g>
			<g>
				<g>
					<rect x="0.776" y="26.654" fill="#F15C25" width="17.025" height="1.692"/>
				</g>
			</g>
		</g>
		<g>
			<g>
				<path fill="#F15C25" d="M49.251,41.109C44.708,48.346,36.657,53.167,27.5,53.167c-14.152,0-25.667-11.515-25.667-25.667
					S13.348,1.833,27.5,1.833c9.157,0,17.208,4.821,21.751,12.058h2.138C46.647,5.6,37.716,0,27.5,0C12.336,0,0,12.336,0,27.5
					C0,42.664,12.336,55,27.5,55c10.216,0,19.146-5.6,23.888-13.891H49.251z"/>
			</g>
		</g>
		<g>
			<g>
				<g>
					<polygon fill="#F15C25" points="28.813,19.641 26.567,19.592 26.427,26.334 19.555,33.279 21.151,34.857 28.655,27.275 					
						"/>
				</g>
				<g>
					<path fill="#F15C25" d="M40.793,21.906c-2.087-5.497-7.359-9.458-13.589-9.56c-2.684-0.043-5.212,0.638-7.404,1.857
						c-2.74,1.475-4.971,3.781-6.354,6.577l-0.627-2.995l-2.197,0.459l1.436,6.877l1.695,0.723l5.808-3.635l-1.191-1.904
						l-2.884,1.805c1.101-2.501,2.992-4.576,5.352-5.907c1.797-0.971,3.85-1.524,6.031-1.524c5.239,0,9.748,3.18,11.697,7.715
						c0.229,0.555,0.426,1.127,0.572,1.717l0.024,0.002c0.282,1.051,0.433,2.156,0.433,3.293c0,7.019-5.708,12.729-12.728,12.729
						c-5.933,0-10.931-4.081-12.333-9.581l-2.071,0.933c1.781,6.28,7.563,10.896,14.405,10.896c8.258,0,14.976-6.717,14.976-14.975
						C41.843,25.464,41.467,23.609,40.793,21.906z"/>
				</g>
			</g>
		</g>
	</g>
</g>
<g display="none">
	<g display="inline">
		<g>
			<g>
				<rect y="26.654" fill="#F15C25" width="12.969" height="1.693"/>
			</g>
		</g>
	</g>
	<g display="inline">
		<g>
			<path fill="#F15C25" d="M49.251,41.109C44.708,48.346,36.657,53.167,27.5,53.167c-14.152,0-25.667-11.515-25.667-25.667
				S13.348,1.833,27.5,1.833c9.157,0,17.208,4.821,21.752,12.058h2.137C46.647,5.6,37.716,0,27.5,0C12.337,0,0,12.336,0,27.5
				C0,42.664,12.337,55,27.5,55c10.216,0,19.146-5.6,23.888-13.891H49.251z"/>
		</g>
	</g>
	<g display="inline">
		<g>
			<path fill="#F15C25" d="M23.562,27.557l-1.7-0.11c0.219-3.386,1.289-5.821,3.182-7.235c2.451-1.832,5.333-1.206,5.454-1.179
				l-0.376,1.662l0.188-0.831l-0.185,0.831c-0.022-0.005-2.266-0.473-4.076,0.893C24.583,22.693,23.747,24.701,23.562,27.557z"/>
		</g>
		<g>
			<path fill="#F15C25" d="M29.159,36.093c-1.09,0-2.677-0.229-4.115-1.304c-1.893-1.414-2.963-3.85-3.182-7.236l1.7-0.109
				c0.185,2.856,1.021,4.864,2.486,5.969c1.811,1.365,4.054,0.897,4.076,0.892l0.373,1.663
				C30.448,35.979,29.927,36.093,29.159,36.093z"/>
		</g>
		<g>
			<rect x="16.783" y="26.65" fill="#F15C25" width="5.929" height="1.704"/>
		</g>
		<g>
			<path fill="#F15C25" d="M14.876,30.258c-1.521,0-2.759-1.238-2.759-2.759s1.237-2.759,2.759-2.759s2.759,1.238,2.759,2.759
				S16.397,30.258,14.876,30.258z M14.876,26.443c-0.582,0-1.056,0.473-1.056,1.055s0.474,1.056,1.056,1.056
				s1.056-0.474,1.056-1.056S15.458,26.443,14.876,26.443z"/>
		</g>
		<g>
			<path fill="#F15C25" d="M32.155,22.519c-1.521,0-2.76-1.238-2.76-2.759c0-1.521,1.238-2.759,2.76-2.759
				c1.521,0,2.759,1.237,2.759,2.759C34.914,21.281,33.676,22.519,32.155,22.519z M32.155,18.705c-0.582,0-1.056,0.473-1.056,1.055
				s0.474,1.055,1.056,1.055c0.581,0,1.055-0.473,1.055-1.055S32.736,18.705,32.155,18.705z"/>
		</g>
		<g>
			<path fill="#F15C25" d="M32.155,38c-1.521,0-2.76-1.238-2.76-2.76c0-1.521,1.238-2.758,2.76-2.758
				c1.521,0,2.759,1.237,2.759,2.758C34.914,36.762,33.676,38,32.155,38z M32.155,34.186c-0.582,0-1.056,0.474-1.056,1.055
				c0,0.582,0.474,1.057,1.056,1.057c0.581,0,1.055-0.475,1.055-1.057C33.21,34.659,32.736,34.186,32.155,34.186z"/>
		</g>
	</g>
</g>
<g display="none">
	<g display="inline">
		<g>
			<g>
				<rect y="26.653" fill="#F15C25" width="12.969" height="1.693"/>
			</g>
		</g>
	</g>
	<g display="inline">
		<g>
			<path fill="#F15C25" d="M49.251,41.108C44.708,48.345,36.657,53.167,27.5,53.167c-14.153,0-25.667-11.514-25.667-25.667
				c0-14.152,11.514-25.667,25.667-25.667c9.157,0,17.208,4.821,21.751,12.058h2.138C46.647,5.6,37.716,0,27.5,0
				C12.336,0,0,12.337,0,27.5S12.336,55,27.5,55c10.216,0,19.146-5.601,23.888-13.892H49.251z"/>
		</g>
	</g>
	<g display="inline">
		<path fill="#F15C25" d="M43.138,19.84c-0.027-0.36,0.277-0.692,0.637-0.721l3.688-0.194c0.194,0,0.389,0.056,0.527,0.194
			s0.193,0.333,0.193,0.526l-0.193,3.688c-0.027,0.36-0.305,0.638-0.666,0.638h-0.027c-0.36-0.028-0.666-0.333-0.638-0.721
			l0.11-2.938l-2.938,0.166C43.442,20.505,43.138,20.2,43.138,19.84z M27.74,33.748l3.67-3.733l1.165,1.164
			c0.249,0.25,0.692,0.25,0.97,0l3.3-3.299l1.164,1.164c0.139,0.139,0.305,0.194,0.471,0.194s0.361-0.083,0.472-0.194l7.153-7.152
			c0.276-0.277,0.276-0.693,0-0.971c-0.277-0.277-0.693-0.277-0.971,0l-6.654,6.654l-1.164-1.164
			c-0.139-0.139-0.305-0.195-0.471-0.195c-0.167,0-0.361,0.084-0.473,0.195l-3.299,3.326l-1.164-1.164
			c-0.139-0.139-0.305-0.194-0.471-0.194c-0.167,0-0.361,0.083-0.472,0.194l-3.494,3.465"/>
	</g>
	<g display="inline">
		<path fill="#F15C25" d="M27.484,38.657l-6.17-3.244l-6.17,3.244l1.178-6.871l-4.992-4.865l6.898-1.002l3.085-6.252l3.085,6.252
			l6.899,1.002l-4.992,4.865L27.484,38.657z M21.314,33.489l3.908,2.055l-0.747-4.352l3.162-3.082l-4.369-0.635l-1.954-3.959
			l-1.954,3.959l-4.369,0.635l3.161,3.082l-0.747,4.352L21.314,33.489z"/>
	</g>
</g>
<g>
	<g>
		<g>
			<g>
				<rect y="26.654" fill="#F15C25" width="15.703" height="1.692"/>
			</g>
		</g>
	</g>
	<g>
		<g>
			<path fill="#F15C25" d="M49.251,41.108C44.707,48.345,36.657,53.167,27.5,53.167c-14.153,0-25.667-11.514-25.667-25.667
				c0-14.152,11.514-25.667,25.667-25.667c9.157,0,17.208,4.821,21.751,12.058h2.137C46.647,5.6,37.716,0,27.5,0
				C12.336,0,0,12.336,0,27.5C0,42.663,12.336,55,27.5,55c10.216,0,19.146-5.601,23.888-13.892H49.251z"/>
		</g>
	</g>
	<g>
		<g>
			<path fill="#F15C25" d="M37.359,42.604c-0.417,0-0.812-0.185-1.086-0.498l-2.656-3.077c-0.517-0.6-0.45-1.505,0.149-2.021
				c0.6-0.519,1.504-0.452,2.021,0.146l1.525,1.767l5.549-6.956c0.493-0.62,1.395-0.726,2.014-0.228
				c0.621,0.492,0.724,1.395,0.229,2.014l-6.625,8.311c-0.265,0.335-0.665,0.531-1.092,0.543
				C37.377,42.604,37.368,42.604,37.359,42.604z"/>
		</g>
		<g>
			<g>
				<path fill="none" d="M33.222,28.13c0.173-0.137,0.386-0.211,0.604-0.211c0.07,0,0.142,0.008,0.213,0.023
					c0.05,0.012,0.094,0.022,0.134,0.031c0.122,0.029,0.128,0.029,0.146,0.029c0.352,0,0.674-0.407,0.772-0.666l-2.019-6.811
					c-0.108-0.365,0.008-0.76,0.297-1.008c0.037-0.031,0.08-0.084,0.08-0.161c0-0.119-0.098-0.216-0.217-0.216v0H17.565
					c-0.119,0-0.216,0.097-0.216,0.217c0,0.077,0.044,0.13,0.08,0.161c0.29,0.249,0.406,0.644,0.297,1.009l-2.023,6.81
					c0.099,0.257,0.422,0.66,0.777,0.66c0.035,0,0.039,0,0.196-0.035l0.084-0.02c0.071-0.016,0.142-0.023,0.213-0.023
					c0.217,0,0.43,0.073,0.603,0.211c0.229,0.184,0.363,0.461,0.363,0.755v8.128h11.664l-0.536-0.593l2.961-0.919l0.831-0.986v-5.63
					C32.858,28.591,32.992,28.313,33.222,28.13z M31.179,32.812c0,0.056-0.004,0.11-0.014,0.166
					c-0.129,0.733-0.766,1.277-1.515,1.294c-0.007,0-0.015,0-0.021,0h-8.479c-0.008,0-0.015,0-0.021,0
					c-0.724-0.017-1.355-0.541-1.501-1.246c-0.013-0.064-0.02-0.131-0.02-0.195v-4.332c0-0.267,0.111-0.522,0.307-0.705
					c0.083-0.078,0.159-0.168,0.218-0.262c0.177-0.281,0.485-0.452,0.817-0.452l0,0c0.333,0,0.642,0.171,0.818,0.452
					c0.137,0.218,0.391,0.471,0.662,0.471c0.273,0,0.529-0.253,0.665-0.47c0.177-0.282,0.485-0.453,0.818-0.453l0,0
					c0.332,0,0.642,0.171,0.817,0.452c0.137,0.218,0.394,0.471,0.67,0.471c0.275,0,0.533-0.254,0.67-0.471
					c0.176-0.281,0.485-0.452,0.817-0.452h0.001c0.332,0.001,0.641,0.171,0.817,0.454c0.136,0.217,0.393,0.469,0.669,0.469
					s0.534-0.254,0.67-0.471c0.178-0.281,0.486-0.452,0.818-0.452h0.001c0.332,0.001,0.642,0.171,0.817,0.454
					c0.056,0.089,0.127,0.178,0.206,0.254c0.186,0.182,0.29,0.432,0.29,0.69V32.812z"/>
			</g>
			<g>
				<path fill="none" d="M28.376,28.969c-0.647,0-1.183-0.437-1.487-0.923c-0.306,0.486-0.841,0.923-1.487,0.923
					c-0.648,0-1.182-0.437-1.486-0.923c-0.306,0.486-0.838,0.923-1.484,0.923c-0.647,0-1.175-0.437-1.48-0.923
					c-0.102,0.162-0.229,0.317-0.375,0.454v4.331c0.055,0.268,0.295,0.469,0.577,0.476h8.479c0.288-0.007,0.535-0.218,0.584-0.495
					v-4.333c-0.135-0.132-0.254-0.278-0.35-0.433C29.558,28.532,29.023,28.969,28.376,28.969z"/>
			</g>
			<g>
				<path fill="#F15C25" d="M30.683,27.534c-0.176-0.283-0.485-0.453-0.817-0.454h-0.001c-0.332,0-0.641,0.171-0.818,0.452
					c-0.136,0.217-0.394,0.471-0.67,0.471s-0.533-0.252-0.669-0.469c-0.177-0.283-0.485-0.453-0.817-0.454h-0.001
					c-0.332,0-0.642,0.171-0.817,0.452c-0.137,0.217-0.395,0.471-0.67,0.471c-0.276,0-0.533-0.253-0.67-0.471
					c-0.176-0.281-0.485-0.452-0.817-0.452l0,0c-0.333,0-0.642,0.171-0.818,0.453c-0.136,0.217-0.392,0.47-0.665,0.47
					c-0.271,0-0.525-0.253-0.662-0.471c-0.177-0.281-0.485-0.452-0.818-0.452l0,0c-0.332,0-0.641,0.171-0.817,0.452
					c-0.059,0.094-0.134,0.184-0.218,0.262c-0.195,0.183-0.307,0.438-0.307,0.705v4.332c0,0.064,0.007,0.131,0.02,0.195
					c0.146,0.705,0.777,1.229,1.501,1.246c0.007,0,0.014,0,0.021,0h8.479c0.006,0,0.014,0,0.021,0
					c0.749-0.017,1.386-0.561,1.515-1.294c0.01-0.056,0.014-0.11,0.014-0.166v-4.334c0-0.259-0.104-0.509-0.29-0.69
					C30.81,27.712,30.738,27.623,30.683,27.534z M30.214,32.812c-0.049,0.277-0.296,0.488-0.584,0.495h-8.479
					c-0.281-0.007-0.521-0.208-0.577-0.476V28.5c0.146-0.137,0.274-0.292,0.375-0.454c0.306,0.486,0.833,0.923,1.48,0.923
					c0.646,0,1.179-0.437,1.484-0.923c0.305,0.486,0.838,0.923,1.486,0.923c0.646,0,1.182-0.437,1.487-0.923
					c0.305,0.486,0.84,0.923,1.487,0.923s1.182-0.437,1.488-0.923c0.096,0.154,0.215,0.301,0.35,0.433V32.812z"/>
				<path fill="#F15C25" d="M21.151,34.884c-1.041-0.023-1.918-0.752-2.121-1.734c-0.022-0.104-0.033-0.213-0.033-0.318v-4.332
					c0-0.434,0.183-0.854,0.5-1.151c0.045-0.042,0.087-0.093,0.118-0.142c0.29-0.461,0.789-0.737,1.334-0.737
					c0.547,0,1.047,0.276,1.336,0.739c0.048,0.077,0.105,0.135,0.146,0.165c0.04-0.03,0.099-0.087,0.147-0.165
					c0.289-0.463,0.789-0.739,1.335-0.739c0.547,0,1.046,0.276,1.336,0.739c0.05,0.08,0.11,0.139,0.151,0.168
					c0.041-0.029,0.102-0.089,0.152-0.168c0.291-0.463,0.789-0.739,1.335-0.739c0.547,0,1.046,0.276,1.337,0.74
					c0.05,0.08,0.109,0.138,0.15,0.168c0.041-0.03,0.102-0.089,0.152-0.169c0.292-0.464,0.791-0.739,1.336-0.739
					c0.548,0.001,1.047,0.278,1.336,0.74c0.031,0.049,0.072,0.101,0.117,0.144c0.301,0.293,0.473,0.705,0.473,1.126v4.334
					c0,0.091-0.008,0.183-0.023,0.274c-0.178,1.017-1.062,1.773-2.103,1.797H21.151z M21.186,29.173v3.533l8.417-0.011v-3.507
					c-0.834,0.568-1.941,0.484-2.715-0.203c-0.856,0.761-2.116,0.762-2.973,0.001C23.137,29.679,22.021,29.757,21.186,29.173z"/>
			</g>
			<g>
				<path fill="#F15C25" d="M17.938,37.013v-8.128c0-0.294-0.134-0.571-0.363-0.755c-0.173-0.138-0.386-0.211-0.603-0.211
					c-0.071,0-0.142,0.008-0.213,0.023l-0.084,0.02c-0.157,0.035-0.161,0.035-0.196,0.035c-0.354,0-0.678-0.403-0.777-0.66
					l2.023-6.81c0.109-0.365-0.008-0.76-0.297-1.009c-0.036-0.031-0.08-0.084-0.08-0.161c0-0.12,0.097-0.217,0.216-0.217h15.667v0
					c0.119,0,0.217,0.097,0.217,0.216c0,0.077-0.043,0.13-0.08,0.161c-0.289,0.248-0.405,0.643-0.297,1.008l2.019,6.811
					c-0.099,0.259-0.421,0.666-0.772,0.666c-0.018,0-0.023,0-0.146-0.029c-0.04-0.009-0.084-0.02-0.134-0.031
					c-0.071-0.016-0.143-0.023-0.213-0.023c-0.218,0-0.431,0.074-0.604,0.211c-0.229,0.184-0.363,0.461-0.363,0.755v5.63
					l0.967-1.146v-4.483c0.233,0.053,0.322,0.084,0.492,0.084c0.982,0,1.716-1.014,1.766-1.678l-2.086-7.039
					c0.253-0.217,0.416-0.535,0.416-0.895c0.001-0.652-0.528-1.182-1.182-1.182H17.565c-0.653,0-1.182,0.529-1.182,1.182
					c0,0.36,0.164,0.678,0.417,0.895l-2.091,7.039c0.05,0.663,0.788,1.673,1.771,1.673c0.17,0,0.259-0.026,0.493-0.079v8.53
					c0,0.312,0.274,0.563,0.585,0.563h12.917l-0.873-0.966H17.938z"/>
				<path fill="#F15C25" d="M31.853,38.59H17.558c-0.66,0-1.196-0.526-1.196-1.175v-7.844c-1.287-0.074-2.195-1.349-2.262-2.234
					l-0.008-0.112l2.025-6.818c-0.222-0.303-0.345-0.67-0.345-1.049c0-0.988,0.805-1.793,1.793-1.793h15.667
					c0.479,0,0.93,0.187,1.269,0.525c0.339,0.339,0.524,0.79,0.524,1.269c0,0.379-0.122,0.746-0.344,1.049l2.02,6.817l-0.008,0.112
					c-0.066,0.888-0.973,2.164-2.256,2.239v4.015l-2.189,2.598v-7.304c0-0.481,0.217-0.931,0.592-1.231
					c0.369-0.295,0.863-0.41,1.33-0.308l0.158,0.037c0.023-0.02,0.064-0.064,0.104-0.117l-1.945-6.566
					c-0.094-0.315-0.084-0.646,0.017-0.947l-14.207,0c0.101,0.301,0.111,0.632,0.017,0.949l-1.949,6.561
					c0.041,0.05,0.087,0.095,0.122,0.116l0.14-0.031c0.453-0.104,0.961,0.01,1.332,0.306c0.377,0.302,0.592,0.751,0.592,1.232v7.518
					h11.325L31.853,38.59z M17.825,19.054c0,0,0.001,0,0.001,0.001C17.826,19.054,17.826,19.054,17.825,19.054z"/>
			</g>
		</g>
	</g>
</g>
</svg>
