<?xml version="1.0" encoding="utf-8"?>
<!-- Generator: Adobe Illustrator 16.0.0, SVG Export Plug-In . SVG Version: 6.00 Build 0)  -->
<!DOCTYPE svg PUBLIC "-//W3C//DTD SVG 1.1//EN" "http://www.w3.org/Graphics/SVG/1.1/DTD/svg11.dtd">
<svg version="1.1" id="Layer_1" xmlns="http://www.w3.org/2000/svg" xmlns:xlink="http://www.w3.org/1999/xlink" x="0px" y="0px"
	 width="52.14px" height="55px" viewBox="0 0 52.14 55" enable-background="new 0 0 52.14 55" xml:space="preserve">
<g display="none">
	<g display="inline">
		<g>
			<rect x="1.021" y="26.654" fill="#F15C25" width="17.025" height="1.693"/>
		</g>
	</g>
	<g display="inline">
		<path fill="#F15C25" d="M50.002,41.109c-4.543,7.236-12.594,12.058-21.751,12.058c-14.152,0-25.667-11.515-25.667-25.667
			S14.099,1.833,28.251,1.833c9.157,0,17.208,4.821,21.751,12.058h2.138C47.398,5.6,38.467,0,28.251,0
			c-15.164,0-27.5,12.336-27.5,27.5c0,15.164,12.336,27.5,27.5,27.5c10.216,0,19.146-5.6,23.888-13.891H50.002z"/>
	</g>
	<g display="inline">
		<g>
			<path fill="#F15C25" d="M26.445,17.73c-2.163,0-3.923-1.76-3.923-3.923c0-2.163,1.76-3.922,3.923-3.922s3.922,1.76,3.922,3.922
				C30.367,15.971,28.607,17.73,26.445,17.73z M26.445,11.345c-1.358,0-2.462,1.104-2.462,2.462c0,1.358,1.104,2.463,2.462,2.463
				s2.463-1.104,2.463-2.463C28.908,12.45,27.803,11.345,26.445,11.345z"/>
		</g>
		<g>
			<path fill="#F15C25" d="M34.936,28.21h-16.98V27.48c0-5.413,3.809-9.816,8.491-9.816c2.29,0,4.435,1.036,6.042,2.917
				c1.578,1.848,2.447,4.298,2.447,6.899V28.21z M19.442,26.75h14.007c-0.144-1.977-0.866-3.808-2.072-5.22
				c-1.324-1.551-3.076-2.405-4.931-2.405C22.776,19.125,19.754,22.483,19.442,26.75z"/>
		</g>
		<g>
			<path fill="#F15C25" d="M23.215,41.818c-2.435,0-4.607-0.561-6.457-1.667c-4.75-2.842-5.5-8.198-5.53-8.425
				c-0.08-0.6,0.083-1.197,0.458-1.682c0.394-0.509,0.971-0.832,1.625-0.91c1.302-0.16,2.5,0.736,2.673,1.994
				c0.003,0.023,0.558,3.459,3.322,5.098c1.892,1.123,4.517,1.258,7.802,0.4c0.254-0.142,0.494-0.29,0.7-0.424
				c-0.414-0.313-1.15-0.75-2.362-1.271c-1.667,0.018-3.804,0.113-5.754,0.258c-1.316,0.102-2.469-0.85-2.574-2.126
				c-0.05-0.603,0.143-1.192,0.542-1.658c0.418-0.489,1.01-0.786,1.666-0.833c2.403-0.179,4.458-0.272,6.118-0.279l0.001-0.002
				l0.416,0.001c0.069,0.001,6.912,0.026,8.398-0.001c0.01,0,0.021,0,0.033,0c1.227,0,4.433,1.106,6.918,2.039l0.473,0.178v6.949
				l-0.656,0.066c-0.203,0.021-0.388,0.021-0.564-0.001c-2.379-0.297-8.576,0.767-10.816,1.212
				C27.335,41.453,25.172,41.818,23.215,41.818z M13.611,30.576c-0.041,0-0.083,0.002-0.124,0.008
				c-0.264,0.031-0.493,0.158-0.646,0.355c-0.134,0.174-0.193,0.385-0.165,0.596c0.026,0.199,0.682,4.881,4.832,7.363
				c1.62,0.969,3.54,1.46,5.707,1.46c1.82,0,3.849-0.347,6.03-1.03l0.075-0.019c0.078-0.016,7.537-1.495,10.902-1.274v-4.514
				c-2.996-1.108-5.252-1.793-5.939-1.77c-1.305,0.021-6.488,0.007-8.014,0.002l0,0h-0.417c-1.689-0.012-3.849,0.084-6.42,0.273
				c-0.265,0.02-0.5,0.136-0.664,0.327c-0.144,0.168-0.213,0.377-0.196,0.589c0.039,0.469,0.502,0.828,1.007,0.79
				c2.044-0.151,4.288-0.249,6.006-0.263l0.151-0.002l0.14,0.059c3.15,1.334,3.557,2.212,3.69,2.5l0.248,0.537l-0.473,0.354
				c-0.03,0.023-0.749,0.56-1.608,1.032l-0.078,0.043l-0.086,0.022c-3.72,0.986-6.751,0.807-9.009-0.533
				c-3.351-1.986-3.996-5.975-4.022-6.144C14.479,30.895,14.075,30.576,13.611,30.576z"/>
		</g>
	</g>
</g>
<g display="none">
	<g display="inline">
		<g>
			<g>
				<g>
					<rect x="0.776" y="26.654" fill="#F15C25" width="17.025" height="1.692"/>
				</g>
			</g>
		</g>
		<g>
			<g>
				<path fill="#F15C25" d="M49.251,41.109C44.708,48.346,36.657,53.167,27.5,53.167c-14.152,0-25.667-11.515-25.667-25.667
					S13.348,1.833,27.5,1.833c9.157,0,17.208,4.821,21.751,12.058h2.138C46.647,5.6,37.716,0,27.5,0C12.336,0,0,12.336,0,27.5
					C0,42.664,12.336,55,27.5,55c10.216,0,19.146-5.6,23.888-13.891H49.251z"/>
			</g>
		</g>
		<g>
			<g>
				<g>
					<polygon fill="#F15C25" points="28.813,19.641 26.567,19.592 26.427,26.334 19.555,33.279 21.151,34.857 28.655,27.275 					
						"/>
				</g>
				<g>
					<path fill="#F15C25" d="M40.793,21.906c-2.087-5.497-7.359-9.458-13.589-9.56c-2.684-0.043-5.212,0.638-7.404,1.857
						c-2.74,1.475-4.971,3.781-6.354,6.577l-0.627-2.995l-2.197,0.459l1.436,6.877l1.695,0.723l5.808-3.635l-1.191-1.904
						l-2.884,1.805c1.101-2.501,2.992-4.576,5.352-5.907c1.797-0.971,3.85-1.524,6.031-1.524c5.239,0,9.748,3.18,11.697,7.715
						c0.229,0.555,0.426,1.127,0.572,1.717l0.024,0.002c0.282,1.051,0.433,2.156,0.433,3.293c0,7.019-5.708,12.729-12.728,12.729
						c-5.933,0-10.931-4.081-12.333-9.581l-2.071,0.933c1.781,6.28,7.563,10.896,14.405,10.896c8.258,0,14.976-6.717,14.976-14.975
						C41.843,25.464,41.467,23.609,40.793,21.906z"/>
				</g>
			</g>
		</g>
	</g>
</g>
<g display="none">
	<g display="inline">
		<g>
			<g>
				<rect y="26.654" fill="#F15C25" width="12.969" height="1.693"/>
			</g>
		</g>
	</g>
	<g display="inline">
		<g>
			<path fill="#F15C25" d="M49.251,41.109C44.708,48.346,36.657,53.167,27.5,53.167c-14.152,0-25.667-11.515-25.667-25.667
				S13.348,1.833,27.5,1.833c9.157,0,17.208,4.821,21.752,12.058h2.137C46.647,5.6,37.716,0,27.5,0C12.337,0,0,12.336,0,27.5
				C0,42.664,12.337,55,27.5,55c10.216,0,19.146-5.6,23.888-13.891H49.251z"/>
		</g>
	</g>
	<g display="inline">
		<g>
			<path fill="#F15C25" d="M23.562,27.557l-1.7-0.11c0.219-3.386,1.289-5.821,3.182-7.235c2.451-1.832,5.333-1.206,5.454-1.179
				l-0.376,1.662l0.188-0.831l-0.185,0.831c-0.022-0.005-2.266-0.473-4.076,0.893C24.583,22.693,23.747,24.701,23.562,27.557z"/>
		</g>
		<g>
			<path fill="#F15C25" d="M29.159,36.093c-1.09,0-2.677-0.229-4.115-1.304c-1.893-1.414-2.963-3.85-3.182-7.236l1.7-0.109
				c0.185,2.856,1.021,4.864,2.486,5.969c1.811,1.365,4.054,0.897,4.076,0.892l0.373,1.663
				C30.448,35.979,29.927,36.093,29.159,36.093z"/>
		</g>
		<g>
			<rect x="16.783" y="26.65" fill="#F15C25" width="5.929" height="1.704"/>
		</g>
		<g>
			<path fill="#F15C25" d="M14.876,30.258c-1.521,0-2.759-1.238-2.759-2.759s1.237-2.759,2.759-2.759s2.759,1.238,2.759,2.759
				S16.397,30.258,14.876,30.258z M14.876,26.443c-0.582,0-1.056,0.473-1.056,1.055s0.474,1.056,1.056,1.056
				s1.056-0.474,1.056-1.056S15.458,26.443,14.876,26.443z"/>
		</g>
		<g>
			<path fill="#F15C25" d="M32.155,22.519c-1.521,0-2.76-1.238-2.76-2.759c0-1.521,1.238-2.759,2.76-2.759
				c1.521,0,2.759,1.237,2.759,2.759C34.914,21.281,33.676,22.519,32.155,22.519z M32.155,18.705c-0.582,0-1.056,0.473-1.056,1.055
				s0.474,1.055,1.056,1.055c0.581,0,1.055-0.473,1.055-1.055S32.736,18.705,32.155,18.705z"/>
		</g>
		<g>
			<path fill="#F15C25" d="M32.155,38c-1.521,0-2.76-1.238-2.76-2.76c0-1.521,1.238-2.758,2.76-2.758
				c1.521,0,2.759,1.237,2.759,2.758C34.914,36.762,33.676,38,32.155,38z M32.155,34.186c-0.582,0-1.056,0.474-1.056,1.055
				c0,0.582,0.474,1.057,1.056,1.057c0.581,0,1.055-0.475,1.055-1.057C33.21,34.659,32.736,34.186,32.155,34.186z"/>
		</g>
	</g>
</g>
<g>
	<g>
		<g>
			<g>
				<rect y="26.653" fill="#F15C25" width="12.969" height="1.693"/>
			</g>
		</g>
	</g>
	<g>
		<g>
			<path fill="#F15C25" d="M49.251,41.108C44.708,48.345,36.657,53.167,27.5,53.167c-14.153,0-25.667-11.514-25.667-25.667
				c0-14.152,11.514-25.667,25.667-25.667c9.157,0,17.208,4.821,21.751,12.058h2.138C46.647,5.6,37.716,0,27.5,0
				C12.336,0,0,12.337,0,27.5S12.336,55,27.5,55c10.216,0,19.146-5.601,23.888-13.892H49.251z"/>
		</g>
	</g>
	<g>
		<path fill="#F15C25" d="M43.138,19.84c-0.027-0.36,0.277-0.692,0.637-0.721l3.688-0.194c0.194,0,0.389,0.056,0.527,0.194
			s0.193,0.333,0.193,0.526l-0.193,3.688c-0.027,0.36-0.305,0.638-0.666,0.638h-0.027c-0.36-0.028-0.666-0.333-0.638-0.721
			l0.11-2.938l-2.938,0.166C43.442,20.505,43.138,20.2,43.138,19.84z M27.74,33.748l3.67-3.733l1.165,1.164
			c0.249,0.25,0.692,0.25,0.97,0l3.3-3.299l1.164,1.164c0.139,0.139,0.305,0.194,0.471,0.194s0.361-0.083,0.472-0.194l7.153-7.152
			c0.276-0.277,0.276-0.693,0-0.971c-0.277-0.277-0.693-0.277-0.971,0l-6.654,6.654l-1.164-1.164
			c-0.139-0.139-0.305-0.195-0.471-0.195c-0.167,0-0.361,0.084-0.473,0.195l-3.299,3.326l-1.164-1.164
			c-0.139-0.139-0.305-0.194-0.471-0.194c-0.167,0-0.361,0.083-0.472,0.194l-3.494,3.465"/>
	</g>
	<g>
		<path fill="#F15C25" d="M27.484,38.657l-6.17-3.244l-6.17,3.244l1.178-6.871l-4.992-4.865l6.898-1.002l3.085-6.252l3.085,6.252
			l6.899,1.002l-4.992,4.865L27.484,38.657z M21.314,33.489l3.908,2.055l-0.747-4.352l3.162-3.082l-4.369-0.635l-1.954-3.959
			l-1.954,3.959l-4.369,0.635l3.161,3.082l-0.747,4.352L21.314,33.489z"/>
	</g>
</g>
</svg>
